curl -X "GET" "https://api.spotify.com/v1/me/playlists?limit=10" -H "Accept: application/json" -H "Content-Type: application/json" -H "Authoriztion: Bearer BQAp_8-4DcdFpyLQ3KHr0W_sihhO-8Du8UNRo-CFIY38CpUkr9hNevGNnIuaecCQcKKFbcmz6qf5V6bw1HSXMJ8OVMKSxGPxaaxW-Fj5E50Vhy0s3hPENAnKfd8Y8zK49F1tRoKa7ydxmP4qvD7AZBdXbkjBTxPKiwms-s4Ie1IBFSV1ucR-GGL847I2"

{
  "href" : "https://api.spotify.com/v1/users/zettinator/playlists?offset=0&limit=10",
  "items" : [ {
    "collaborative" : false,
    "description" : "",
    "external_urls" : {
      "spotify" : "https://open.spotify.com/playlist/1kwNGhDH6wkG9ax5YbBcXX"
    },
    "href" : "https://api.spotify.com/v1/playlists/1kwNGhDH6wkG9ax5YbBcXX",
    "id" : "1kwNGhDH6wkG9ax5YbBcXX",
    "images" : [ {
      "height" : 640,
      "url" : "https://mosaic.scdn.co/640/ab67616d0000b27326d64b6150aa3d9b6b67d857ab67616d0000b2733d5b8fe604275dfab677bd0dab67616d0000b273c6e0948bbb0681ff29cdbae8ab67616d0000b273f8e77075414234fd77fce32b",
      "width" : 640
    }, {
      "height" : 300,
      "url" : "https://mosaic.scdn.co/300/ab67616d0000b27326d64b6150aa3d9b6b67d857ab67616d0000b2733d5b8fe604275dfab677bd0dab67616d0000b273c6e0948bbb0681ff29cdbae8ab67616d0000b273f8e77075414234fd77fce32b",
      "width" : 300
    }, {
      "height" : 60,
      "url" : "https://mosaic.scdn.co/60/ab67616d0000b27326d64b6150aa3d9b6b67d857ab67616d0000b2733d5b8fe604275dfab677bd0dab67616d0000b273c6e0948bbb0681ff29cdbae8ab67616d0000b273f8e77075414234fd77fce32b",
      "width" : 60
    } ],
    "name" : " سواج",
    "owner" : {
      "display_name" : "zettinator",
      "external_urls" : {
        "spotify" : "https://open.spotify.com/user/zettinator"
      },
      "href" : "https://api.spotify.com/v1/users/zettinator",
      "id" : "zettinator",
      "type" : "user",
      "uri" : "spotify:user:zettinator"
    },
    "primary_color" : null,
    "public" : true,
    "snapshot_id" : "NzI4LDQ5NzEwOWE2MTkxYjdhMzNlMmM1ZTlkNTJlODViMWVhNmY5NmM1NWM=",
    "tracks" : {
      "href" : "https://api.spotify.com/v1/playlists/1kwNGhDH6wkG9ax5YbBcXX/tracks",
      "total" : 302
    },
    "type" : "playlist",
    "uri" : "spotify:playlist:1kwNGhDH6wkG9ax5YbBcXX"
  }, {
    "collaborative" : false,
    "description" : "",
    "external_urls" : {
      "spotify" : "https://open.spotify.com/playlist/5Y4nrp8ZdgdL0UYfs6ZuWK"
    },
    "href" : "https://api.spotify.com/v1/playlists/5Y4nrp8ZdgdL0UYfs6ZuWK",
    "id" : "5Y4nrp8ZdgdL0UYfs6ZuWK",
    "images" : [ {
      "height" : 640,
      "url" : "https://mosaic.scdn.co/640/ab67616d0000b2730f423cb61f9e48339608e0bfab67616d0000b273ba8d2c5f015ec966d933c31aab67616d0000b273d73d90345236a54b03caabd8ab67616d0000b273e24dc0f4f36e7ca0fc84e610",
      "width" : 640
    }, {
      "height" : 300,
      "url" : "https://mosaic.scdn.co/300/ab67616d0000b2730f423cb61f9e48339608e0bfab67616d0000b273ba8d2c5f015ec966d933c31aab67616d0000b273d73d90345236a54b03caabd8ab67616d0000b273e24dc0f4f36e7ca0fc84e610",
      "width" : 300
    }, {
      "height" : 60,
      "url" : "https://mosaic.scdn.co/60/ab67616d0000b2730f423cb61f9e48339608e0bfab67616d0000b273ba8d2c5f015ec966d933c31aab67616d0000b273d73d90345236a54b03caabd8ab67616d0000b273e24dc0f4f36e7ca0fc84e610",
      "width" : 60
    } ],
    "name" : "October 2022",
    "owner" : {
      "display_name" : "zettinator",
      "external_urls" : {
        "spotify" : "https://open.spotify.com/user/zettinator"
      },
      "href" : "https://api.spotify.com/v1/users/zettinator",
      "id" : "zettinator",
      "type" : "user",
      "uri" : "spotify:user:zettinator"
    },
    "primary_color" : null,
    "public" : true,
    "snapshot_id" : "MjksOTU4MmY5ZWI5Mzc5MDMwMDgxNDRiNjJjZDVjNGIyNTkwZDk2MzY1OQ==",
    "tracks" : {
      "href" : "https://api.spotify.com/v1/playlists/5Y4nrp8ZdgdL0UYfs6ZuWK/tracks",
      "total" : 25
    },
    "type" : "playlist",
    "uri" : "spotify:playlist:5Y4nrp8ZdgdL0UYfs6ZuWK"
  }, {
    "collaborative" : false,
    "description" : "",
    "external_urls" : {
      "spotify" : "https://open.spotify.com/playlist/55cnEwwagmMwSA9nlXJwce"
    },
    "href" : "https://api.spotify.com/v1/playlists/55cnEwwagmMwSA9nlXJwce",
    "id" : "55cnEwwagmMwSA9nlXJwce",
    "images" : [ {
      "height" : 640,
      "url" : "https://mosaic.scdn.co/640/ab67616d0000b273346d77e155d854735410ed18ab67616d0000b2734e4ad725fbfb99d854e1aa25ab67616d0000b2736a6387ab37f64034cdc7b367ab67616d0000b27387707dd6478b1469d583dd47",
      "width" : 640
    }, {
      "height" : 300,
      "url" : "https://mosaic.scdn.co/300/ab67616d0000b273346d77e155d854735410ed18ab67616d0000b2734e4ad725fbfb99d854e1aa25ab67616d0000b2736a6387ab37f64034cdc7b367ab67616d0000b27387707dd6478b1469d583dd47",
      "width" : 300
    }, {
      "height" : 60,
      "url" : "https://mosaic.scdn.co/60/ab67616d0000b273346d77e155d854735410ed18ab67616d0000b2734e4ad725fbfb99d854e1aa25ab67616d0000b2736a6387ab37f64034cdc7b367ab67616d0000b27387707dd6478b1469d583dd47",
      "width" : 60
    } ],
    "name" : "September 2022",
    "owner" : {
      "display_name" : "zettinator",
      "external_urls" : {
        "spotify" : "https://open.spotify.com/user/zettinator"
      },
      "href" : "https://api.spotify.com/v1/users/zettinator",
      "id" : "zettinator",
      "type" : "user",
      "uri" : "spotify:user:zettinator"
    },
    "primary_color" : null,
    "public" : true,
    "snapshot_id" : "ODMsZWI3ZTMwNjNlNmE4ZDA5ZmFmZjI0NWNlYmFhZTlkMGRkNGMzYzE5NQ==",
    "tracks" : {
      "href" : "https://api.spotify.com/v1/playlists/55cnEwwagmMwSA9nlXJwce/tracks",
      "total" : 72
    },
    "type" : "playlist",
    "uri" : "spotify:playlist:55cnEwwagmMwSA9nlXJwce"
  }, {
    "collaborative" : false,
    "description" : "Unorganized random jazz&#x2F;jazz inspired albums i like",
    "external_urls" : {
      "spotify" : "https://open.spotify.com/playlist/6oIL9TMySDZhtu818AVj64"
    },
    "href" : "https://api.spotify.com/v1/playlists/6oIL9TMySDZhtu818AVj64",
    "id" : "6oIL9TMySDZhtu818AVj64",
    "images" : [ {
      "height" : 640,
      "url" : "https://mosaic.scdn.co/640/ab67616d0000b2730e37e55fe578906d6460c788ab67616d0000b27347a51205061053303846cb79ab67616d0000b2739d470e602919ac309d24f746ab67616d0000b273ea4ed8ba351651dbfca513a2",
      "width" : 640
    }, {
      "height" : 300,
      "url" : "https://mosaic.scdn.co/300/ab67616d0000b2730e37e55fe578906d6460c788ab67616d0000b27347a51205061053303846cb79ab67616d0000b2739d470e602919ac309d24f746ab67616d0000b273ea4ed8ba351651dbfca513a2",
      "width" : 300
    }, {
      "height" : 60,
      "url" : "https://mosaic.scdn.co/60/ab67616d0000b2730e37e55fe578906d6460c788ab67616d0000b27347a51205061053303846cb79ab67616d0000b2739d470e602919ac309d24f746ab67616d0000b273ea4ed8ba351651dbfca513a2",
      "width" : 60
    } ],
    "name" : "jazz",
    "owner" : {
      "display_name" : "drew",
      "external_urls" : {
        "spotify" : "https://open.spotify.com/user/drewisan"
      },
      "href" : "https://api.spotify.com/v1/users/drewisan",
      "id" : "drewisan",
      "type" : "user",
      "uri" : "spotify:user:drewisan"
    },
    "primary_color" : null,
    "public" : false,
    "snapshot_id" : "MjIyLDg5MTYyNGY5NWY0ZThhM2JjMTQ4MWNmNDYzMGM4NzI0ODVkMWExY2Q=",
    "tracks" : {
      "href" : "https://api.spotify.com/v1/playlists/6oIL9TMySDZhtu818AVj64/tracks",
      "total" : 311
    },
    "type" : "playlist",
    "uri" : "spotify:playlist:6oIL9TMySDZhtu818AVj64"
  }, {
    "collaborative" : false,
    "description" : "",
    "external_urls" : {
      "spotify" : "https://open.spotify.com/playlist/0QXvlB3w3gCMiyWMrJU9cQ"
    },
    "href" : "https://api.spotify.com/v1/playlists/0QXvlB3w3gCMiyWMrJU9cQ",
    "id" : "0QXvlB3w3gCMiyWMrJU9cQ",
    "images" : [ {
      "height" : 640,
      "url" : "https://mosaic.scdn.co/640/ab67616d0000b2730ddd7e736f870994f4707947ab67616d0000b2736ac9fc028a8ba4c13b34a784ab67616d0000b273e5dd0952c693529017743e39ab67616d0000b273ea7caaff71dea1051d49b2fe",
      "width" : 640
    }, {
      "height" : 300,
      "url" : "https://mosaic.scdn.co/300/ab67616d0000b2730ddd7e736f870994f4707947ab67616d0000b2736ac9fc028a8ba4c13b34a784ab67616d0000b273e5dd0952c693529017743e39ab67616d0000b273ea7caaff71dea1051d49b2fe",
      "width" : 300
    }, {
      "height" : 60,
      "url" : "https://mosaic.scdn.co/60/ab67616d0000b2730ddd7e736f870994f4707947ab67616d0000b2736ac9fc028a8ba4c13b34a784ab67616d0000b273e5dd0952c693529017743e39ab67616d0000b273ea7caaff71dea1051d49b2fe",
      "width" : 60
    } ],
    "name" : "July/August 2022",
    "owner" : {
      "display_name" : "zettinator",
      "external_urls" : {
        "spotify" : "https://open.spotify.com/user/zettinator"
      },
      "href" : "https://api.spotify.com/v1/users/zettinator",
      "id" : "zettinator",
      "type" : "user",
      "uri" : "spotify:user:zettinator"
    },
    "primary_color" : null,
    "public" : true,
    "snapshot_id" : "MzMsMGJhZTAzMTQxMWEzMDY5ZjAyMTEyZTkzYTc2YTYzMzNiOTYwZTRjMg==",
    "tracks" : {
      "href" : "https://api.spotify.com/v1/playlists/0QXvlB3w3gCMiyWMrJU9cQ/tracks",
      "total" : 32
    },
    "type" : "playlist",
    "uri" : "spotify:playlist:0QXvlB3w3gCMiyWMrJU9cQ"
  }, {
    "collaborative" : false,
    "description" : "",
    "external_urls" : {
      "spotify" : "https://open.spotify.com/playlist/10KYEZ8P8A3rcnqtfQL2Y7"
    },
    "href" : "https://api.spotify.com/v1/playlists/10KYEZ8P8A3rcnqtfQL2Y7",
    "id" : "10KYEZ8P8A3rcnqtfQL2Y7",
    "images" : [ {
      "height" : 640,
      "url" : "https://mosaic.scdn.co/640/ab67616d0000b2731bff3b5284c581b83e918d19ab67616d0000b27343c1476e8835e45aa2aa370bab67616d0000b2734b6193be2331eb5da55e2bdeab67616d0000b2739ba6a1b973e91955ab23c50c",
      "width" : 640
    }, {
      "height" : 300,
      "url" : "https://mosaic.scdn.co/300/ab67616d0000b2731bff3b5284c581b83e918d19ab67616d0000b27343c1476e8835e45aa2aa370bab67616d0000b2734b6193be2331eb5da55e2bdeab67616d0000b2739ba6a1b973e91955ab23c50c",
      "width" : 300
    }, {
      "height" : 60,
      "url" : "https://mosaic.scdn.co/60/ab67616d0000b2731bff3b5284c581b83e918d19ab67616d0000b27343c1476e8835e45aa2aa370bab67616d0000b2734b6193be2331eb5da55e2bdeab67616d0000b2739ba6a1b973e91955ab23c50c",
      "width" : 60
    } ],
    "name" : "Silver Soul",
    "owner" : {
      "display_name" : "Isabella Benice",
      "external_urls" : {
        "spotify" : "https://open.spotify.com/user/1257249495"
      },
      "href" : "https://api.spotify.com/v1/users/1257249495",
      "id" : "1257249495",
      "type" : "user",
      "uri" : "spotify:user:1257249495"
    },
    "primary_color" : null,
    "public" : false,
    "snapshot_id" : "NzIsNTliYTEwODNlOTYwNGNjOWI2MDAwMzEwMDI4ODBmYWIyNjE4MDQ0Zg==",
    "tracks" : {
      "href" : "https://api.spotify.com/v1/playlists/10KYEZ8P8A3rcnqtfQL2Y7/tracks",
      "total" : 69
    },
    "type" : "playlist",
    "uri" : "spotify:playlist:10KYEZ8P8A3rcnqtfQL2Y7"
  }, {
    "collaborative" : false,
    "description" : "",
    "external_urls" : {
      "spotify" : "https://open.spotify.com/playlist/1rfB371uw2GWgJ24cEk9wn"
    },
    "href" : "https://api.spotify.com/v1/playlists/1rfB371uw2GWgJ24cEk9wn",
    "id" : "1rfB371uw2GWgJ24cEk9wn",
    "images" : [ {
      "height" : null,
      "url" : "https://i.scdn.co/image/ab67706c0000bebbb3a0d08ac5a0aa5daf93ecb0",
      "width" : null
    } ],
    "name" : "June 2022",
    "owner" : {
      "display_name" : "zettinator",
      "external_urls" : {
        "spotify" : "https://open.spotify.com/user/zettinator"
      },
      "href" : "https://api.spotify.com/v1/users/zettinator",
      "id" : "zettinator",
      "type" : "user",
      "uri" : "spotify:user:zettinator"
    },
    "primary_color" : null,
    "public" : true,
    "snapshot_id" : "MTgsZWNjYjM4NDQ3YzM3NzI2ZDkxNDkxMzhlYWYyNjMxMWZiN2E5ZjE5ZQ==",
    "tracks" : {
      "href" : "https://api.spotify.com/v1/playlists/1rfB371uw2GWgJ24cEk9wn/tracks",
      "total" : 11
    },
    "type" : "playlist",
    "uri" : "spotify:playlist:1rfB371uw2GWgJ24cEk9wn"
  }, {
    "collaborative" : false,
    "description" : "",
    "external_urls" : {
      "spotify" : "https://open.spotify.com/playlist/3iNxUMfyppUzWhsLM41U9H"
    },
    "href" : "https://api.spotify.com/v1/playlists/3iNxUMfyppUzWhsLM41U9H",
    "id" : "3iNxUMfyppUzWhsLM41U9H",
    "images" : [ {
      "height" : 640,
      "url" : "https://mosaic.scdn.co/640/ab67616d0000b2730ddd7e736f870994f4707947ab67616d0000b2736ac9fc028a8ba4c13b34a784ab67616d0000b273e5dd0952c693529017743e39ab67616d0000b273ea7caaff71dea1051d49b2fe",
      "width" : 640
    }, {
      "height" : 300,
      "url" : "https://mosaic.scdn.co/300/ab67616d0000b2730ddd7e736f870994f4707947ab67616d0000b2736ac9fc028a8ba4c13b34a784ab67616d0000b273e5dd0952c693529017743e39ab67616d0000b273ea7caaff71dea1051d49b2fe",
      "width" : 300
    }, {
      "height" : 60,
      "url" : "https://mosaic.scdn.co/60/ab67616d0000b2730ddd7e736f870994f4707947ab67616d0000b2736ac9fc028a8ba4c13b34a784ab67616d0000b273e5dd0952c693529017743e39ab67616d0000b273ea7caaff71dea1051d49b2fe",
      "width" : 60
    } ],
    "name" : "shit i wanna listen to at work",
    "owner" : {
      "display_name" : "apsarantos",
      "external_urls" : {
        "spotify" : "https://open.spotify.com/user/apsarantos"
      },
      "href" : "https://api.spotify.com/v1/users/apsarantos",
      "id" : "apsarantos",
      "type" : "user",
      "uri" : "spotify:user:apsarantos"
    },
    "primary_color" : null,
    "public" : false,
    "snapshot_id" : "MTIwLGNhNGEwZWU2OGJkNGZiNzgzZmVmODgwMWQ2OGU5MDVhMjcwNTc5NDE=",
    "tracks" : {
      "href" : "https://api.spotify.com/v1/playlists/3iNxUMfyppUzWhsLM41U9H/tracks",
      "total" : 117
    },
    "type" : "playlist",
    "uri" : "spotify:playlist:3iNxUMfyppUzWhsLM41U9H"
  }, {
    "collaborative" : false,
    "description" : "",
    "external_urls" : {
      "spotify" : "https://open.spotify.com/playlist/671538el3ySOINNOLiJcXf"
    },
    "href" : "https://api.spotify.com/v1/playlists/671538el3ySOINNOLiJcXf",
    "id" : "671538el3ySOINNOLiJcXf",
    "images" : [ {
      "height" : 640,
      "url" : "https://i.scdn.co/image/ab67616d0000b2735fc60df695d3cc581ee84c28",
      "width" : 640
    } ],
    "name" : "May 2022",
    "owner" : {
      "display_name" : "zettinator",
      "external_urls" : {
        "spotify" : "https://open.spotify.com/user/zettinator"
      },
      "href" : "https://api.spotify.com/v1/users/zettinator",
      "id" : "zettinator",
      "type" : "user",
      "uri" : "spotify:user:zettinator"
    },
    "primary_color" : null,
    "public" : true,
    "snapshot_id" : "MTAsOTI1OGRkMzc3ZDY0Nzc2MGIyYjk5MDkxZTRlODQzOWM5MjE2YmQwMQ==",
    "tracks" : {
      "href" : "https://api.spotify.com/v1/playlists/671538el3ySOINNOLiJcXf/tracks",
      "total" : 5
    },
    "type" : "playlist",
    "uri" : "spotify:playlist:671538el3ySOINNOLiJcXf"
  }, {
    "collaborative" : false,
    "description" : "",
    "external_urls" : {
      "spotify" : "https://open.spotify.com/playlist/4MWsc7AOEtRSreVfDaIT3i"
    },
    "href" : "https://api.spotify.com/v1/playlists/4MWsc7AOEtRSreVfDaIT3i",
    "id" : "4MWsc7AOEtRSreVfDaIT3i",
    "images" : [ {
      "height" : 640,
      "url" : "https://mosaic.scdn.co/640/ab67616d0000b27314d91ebdd6d7e2931322cc1aab67616d0000b2732e00657fb57e03072174067bab67616d0000b27372b69f1f356613717909d6dbab67616d0000b2738efe5b8d9a3544b98aa6a85e",
      "width" : 640
    }, {
      "height" : 300,
      "url" : "https://mosaic.scdn.co/300/ab67616d0000b27314d91ebdd6d7e2931322cc1aab67616d0000b2732e00657fb57e03072174067bab67616d0000b27372b69f1f356613717909d6dbab67616d0000b2738efe5b8d9a3544b98aa6a85e",
      "width" : 300
    }, {
      "height" : 60,
      "url" : "https://mosaic.scdn.co/60/ab67616d0000b27314d91ebdd6d7e2931322cc1aab67616d0000b2732e00657fb57e03072174067bab67616d0000b27372b69f1f356613717909d6dbab67616d0000b2738efe5b8d9a3544b98aa6a85e",
      "width" : 60
    } ],
    "name" : "veg",
    "owner" : {
      "display_name" : "zettinator",
      "external_urls" : {
        "spotify" : "https://open.spotify.com/user/zettinator"
      },
      "href" : "https://api.spotify.com/v1/users/zettinator",
      "id" : "zettinator",
      "type" : "user",
      "uri" : "spotify:user:zettinator"
    },
    "primary_color" : null,
    "public" : true,
    "snapshot_id" : "MjIsNmEyZTYwNmUzNmNkNzM4NjRlZTgyNTY1NWFiN2YyNWRlYTY4MGQwMQ==",
    "tracks" : {
      "href" : "https://api.spotify.com/v1/playlists/4MWsc7AOEtRSreVfDaIT3i/tracks",
      "total" : 20
    },
    "type" : "playlist",
    "uri" : "spotify:playlist:4MWsc7AOEtRSreVfDaIT3i"
  } ],
  "limit" : 10,
  "next" : "https://api.spotify.com/v1/users/zettinator/playlists?offset=10&limit=10",
  "offset" : 0,
  "previous" : null,
  "total" : 199